<?xml version="1.0" encoding="UTF-8"?>
<session version="1.0">
<refactoring comment="Rename resource &apos;sanchez_tp1_open/src/sanchez_tp1.c&apos; to &apos;sanchez_tp1_open.c&apos;" description="Rename resource &apos;sanchez_tp1.c&apos;" flags="7" id="org.eclipse.ltk.core.refactoring.rename.resource" input="src/sanchez_tp1.c" name="sanchez_tp1_open.c" stamp="1566671805025" updateReferences="true"/>
</session>